[
  {
    "title": "Savoir Être",
    "content":[
      {
        "subtitle": "",
        "list": [
          "Autonomie",
          "Audace",
          "Intuitivité",
          "Travailler en équipe"
        ]
      }
    ]
  },
  {
    "title": "Compétences Techniques",
    "content": [
      {
        "subtitle": "Langages de programmation",
        "list": [
          "Javascript/Typescript",
          "Python",
          "Java"
        ]
      },
      {
        "subtitle": "Framework",
        "list": [
          "VueJS",
          "NodeJS",
          "Django",
          "JEE"
        ]
      },
      {
        "subtitle": "Notions",
        "list": [
          "Méthodes Agiles",
          "Virtualisation",
          "TDD",
          "DevOps"
        ]
      },
      {
        "subtitle": "Outils de développement",
        "list": [
          "Git",
          "Docker",
          "CI/CD"
        ]
      },
      {
        "subtitle": "Langues",
        "list": [
          "Anglais technique"
        ]
      }
    ]
  }
]
